<?xml version="1.0" encoding="UTF-8" standalone="no"?>
<!-- Created with Inkscape (http://www.inkscape.org/) -->

<svg
   xmlns:dc="http://purl.org/dc/elements/1.1/"
   xmlns:cc="http://creativecommons.org/ns#"
   xmlns:rdf="http://www.w3.org/1999/02/22-rdf-syntax-ns#"
   xmlns:svg="http://www.w3.org/2000/svg"
   xmlns="http://www.w3.org/2000/svg"
   xmlns:xlink="http://www.w3.org/1999/xlink"
   xmlns:sodipodi="http://sodipodi.sourceforge.net/DTD/sodipodi-0.dtd"
   xmlns:inkscape="http://www.inkscape.org/namespaces/inkscape"
   width="210mm"
   height="297mm"
   id="svg2"
   version="1.1"
   inkscape:version="0.92.4 (5da689c313, 2019-01-14)"
   sodipodi:docname="coverpage-console.svg">
  <defs
     id="defs4">
    <linearGradient
       id="linearGradient4078">
      <stop
         style="stop-color:#3d3d3d;stop-opacity:1;"
         offset="0"
         id="stop4080" />
      <stop
         style="stop-color:#3d3d3d;stop-opacity:0.48201439;"
         offset="1"
         id="stop4082" />
    </linearGradient>
    <linearGradient
       id="linearGradient3904">
      <stop
         style="stop-color:#ffffff;stop-opacity:0;"
         offset="0"
         id="stop3906" />
      <stop
         id="stop3914"
         offset="0.31814772"
         style="stop-color:#ffffff;stop-opacity:0.78431374;" />
      <stop
         id="stop3912"
         offset="0.91343254"
         style="stop-color:#ffffff;stop-opacity:0.78431374;" />
      <stop
         style="stop-color:#ffffff;stop-opacity:0;"
         offset="1"
         id="stop3908" />
    </linearGradient>
    <linearGradient
       inkscape:collect="always"
       id="linearGradient4664">
      <stop
         style="stop-color:#d00006;stop-opacity:1;"
         offset="0"
         id="stop4666" />
      <stop
         style="stop-color:#d00006;stop-opacity:0;"
         offset="1"
         id="stop4668" />
    </linearGradient>
    <linearGradient
       id="linearGradient4644">
      <stop
         style="stop-color:#ff0000;stop-opacity:1;"
         offset="0"
         id="stop4646" />
      <stop
         style="stop-color:#cf0000;stop-opacity:0.46043167;"
         offset="1"
         id="stop4648" />
    </linearGradient>
    <linearGradient
       id="linearGradient4587">
      <stop
         style="stop-color:#ffe1e2;stop-opacity:1;"
         offset="0"
         id="stop4589" />
      <stop
         style="stop-color:#ee0008;stop-opacity:0;"
         offset="1"
         id="stop4591" />
    </linearGradient>
    <linearGradient
       id="linearGradient4139">
      <stop
         style="stop-color:#c60a0a;stop-opacity:1;"
         offset="0"
         id="stop4141" />
      <stop
         style="stop-color:#850707;stop-opacity:0;"
         offset="1"
         id="stop4143" />
    </linearGradient>
    <linearGradient
       id="linearGradient4123">
      <stop
         style="stop-color:#5f0000;stop-opacity:0.32374102;"
         offset="0"
         id="stop4125" />
      <stop
         style="stop-color:#ffffff;stop-opacity:0;"
         offset="1"
         id="stop4127" />
    </linearGradient>
    <linearGradient
       id="linearGradient4103">
      <stop
         style="stop-color:#000000;stop-opacity:1;"
         offset="0"
         id="stop4105" />
      <stop
         style="stop-color:#b90000;stop-opacity:0;"
         offset="1"
         id="stop4107" />
    </linearGradient>
    <linearGradient
       id="linearGradient4045">
      <stop
         style="stop-color:#000000;stop-opacity:1;"
         offset="0"
         id="stop4047" />
      <stop
         id="stop4059"
         offset="0.23789497"
         style="stop-color:#464646;stop-opacity:1;" />
      <stop
         id="stop4053"
         offset="0.27460751"
         style="stop-color:#ffffff;stop-opacity:1;" />
      <stop
         style="stop-color:#ffffff;stop-opacity:1;"
         offset="0.74062073"
         id="stop4055" />
      <stop
         style="stop-color:#000000;stop-opacity:1;"
         offset="1"
         id="stop4049" />
    </linearGradient>
    <linearGradient
       id="linearGradient4025">
      <stop
         style="stop-color:#c60808;stop-opacity:1;"
         offset="0"
         id="stop4027" />
      <stop
         id="stop4033"
         offset="0.56333101"
         style="stop-color:#8b0808;stop-opacity:0.37410071;" />
      <stop
         style="stop-color:#8b0808;stop-opacity:1;"
         offset="1"
         id="stop4029" />
    </linearGradient>
    <linearGradient
       inkscape:collect="always"
       xlink:href="#linearGradient4025"
       id="linearGradient4031"
       x1="142.69725"
       y1="430.72238"
       x2="237.76833"
       y2="478.84409"
       gradientUnits="userSpaceOnUse"
       gradientTransform="translate(-780)" />
    <radialGradient
       inkscape:collect="always"
       xlink:href="#linearGradient4045"
       id="radialGradient4069"
       gradientUnits="userSpaceOnUse"
       gradientTransform="matrix(1.1257297,0,0,0.91316704,61.820386,35.435958)"
       cx="-299.81207"
       cy="454.15884"
       fx="-299.81207"
       fy="454.15884"
       r="15.914475" />
    <radialGradient
       inkscape:collect="always"
       xlink:href="#linearGradient4045"
       id="radialGradient4071"
       gradientUnits="userSpaceOnUse"
       gradientTransform="matrix(1.1814524,0,0,0.91316704,54.40163,39.435958)"
       cx="-299.81207"
       cy="454.15884"
       fx="-299.81207"
       fy="454.15884"
       r="15.914475" />
    <linearGradient
       inkscape:collect="always"
       xlink:href="#linearGradient4103"
       id="linearGradient4109"
       x1="283.98166"
       y1="482.92493"
       x2="304.3107"
       y2="475.6713"
       gradientUnits="userSpaceOnUse"
       gradientTransform="translate(2,2)" />
    <linearGradient
       inkscape:collect="always"
       xlink:href="#linearGradient4139"
       id="linearGradient4145"
       x1="254.05432"
       y1="482.6861"
       x2="200.9789"
       y2="409.79587"
       gradientUnits="userSpaceOnUse" />
    <linearGradient
       inkscape:collect="always"
       xlink:href="#linearGradient4664"
       id="linearGradient4670"
       x1="121.86762"
       y1="546.02277"
       x2="185.54404"
       y2="546.02277"
       gradientUnits="userSpaceOnUse" />
    <radialGradient
       inkscape:collect="always"
       xlink:href="#linearGradient4644"
       id="radialGradient4764"
       cx="98.721039"
       cy="552.52179"
       fx="98.721039"
       fy="552.52179"
       r="32.572868"
       gradientTransform="matrix(2.1672929,-0.06597205,0.06707437,2.2035057,-132.61934,-651.85095)"
       gradientUnits="userSpaceOnUse" />
    <linearGradient
       inkscape:collect="always"
       xlink:href="#linearGradient3904"
       id="linearGradient3910"
       x1="133.61459"
       y1="211.53165"
       x2="133.61459"
       y2="45.252739"
       gradientUnits="userSpaceOnUse"
       gradientTransform="matrix(1,0,0,1.6509871,-297.76791,-362.57055)" />
    <linearGradient
       inkscape:collect="always"
       xlink:href="#linearGradient4078"
       id="linearGradient4084"
       x1="146.06274"
       y1="232.44745"
       x2="181.06493"
       y2="232.44745"
       gradientUnits="userSpaceOnUse"
       gradientTransform="translate(-293.26532,-70.157451)" />
    <filter
       inkscape:collect="always"
       id="filter4883"
       x="-0.006293342"
       width="1.0125867"
       y="-0.12872359"
       height="1.2574472">
      <feGaussianBlur
         inkscape:collect="always"
         stdDeviation="0.66099563"
         id="feGaussianBlur4885" />
    </filter>
    <linearGradient
       inkscape:collect="always"
       xlink:href="#linearGradient4103"
       id="linearGradient5793"
       gradientUnits="userSpaceOnUse"
       gradientTransform="translate(2,2)"
       x1="283.98166"
       y1="482.92493"
       x2="304.3107"
       y2="475.6713" />
    <linearGradient
       inkscape:collect="always"
       xlink:href="#SVGID_1_"
       id="linearGradient5613"
       gradientUnits="userSpaceOnUse"
       gradientTransform="matrix(1,0,0,-1,84,535)"
       x1="288.78949"
       y1="412.5"
       x2="288.78949"
       y2="188.3907" />
    <linearGradient
       gradientTransform="matrix(1,0,0,-1,84,535)"
       y2="188.3907"
       x2="288.78949"
       y1="412.5"
       x1="288.78949"
       gradientUnits="userSpaceOnUse"
       id="SVGID_1_">
      <stop
         id="stop795"
         style="stop-color:#3D3D3D"
         offset="0.6404" />
      <stop
         id="stop797"
         style="stop-color:#000000"
         offset="0.6441" />
    </linearGradient>
    <linearGradient
       inkscape:collect="always"
       xlink:href="#SVGID_2_"
       id="linearGradient5615"
       gradientUnits="userSpaceOnUse"
       gradientTransform="matrix(1,0,0,-1,84,535)"
       x1="414.23499"
       y1="412.5"
       x2="414.23499"
       y2="188.3907" />
    <linearGradient
       gradientTransform="matrix(1,0,0,-1,84,535)"
       y2="188.3907"
       x2="414.23499"
       y1="412.5"
       x1="414.23499"
       gradientUnits="userSpaceOnUse"
       id="SVGID_2_">
      <stop
         id="stop802"
         style="stop-color:#3D3D3D"
         offset="0.6404" />
      <stop
         id="stop804"
         style="stop-color:#000000"
         offset="0.6441" />
    </linearGradient>
    <linearGradient
       inkscape:collect="always"
       xlink:href="#SVGID_3_"
       id="linearGradient5617"
       gradientUnits="userSpaceOnUse"
       gradientTransform="matrix(1,0,0,-1,84,535)"
       x1="542.23993"
       y1="412.5"
       x2="542.24011"
       y2="188.3907" />
    <linearGradient
       gradientTransform="matrix(1,0,0,-1,84,535)"
       y2="188.3907"
       x2="542.24011"
       y1="412.5"
       x1="542.23993"
       gradientUnits="userSpaceOnUse"
       id="SVGID_3_">
      <stop
         id="stop809"
         style="stop-color:#3D3D3D"
         offset="0.6404" />
      <stop
         id="stop811"
         style="stop-color:#000000"
         offset="0.6441" />
    </linearGradient>
    <linearGradient
       inkscape:collect="always"
       xlink:href="#SVGID_4_"
       id="linearGradient5619"
       gradientUnits="userSpaceOnUse"
       gradientTransform="matrix(1,0,0,-1,84,535)"
       x1="655.6225"
       y1="412.5"
       x2="655.6225"
       y2="188.3907" />
    <linearGradient
       gradientTransform="matrix(1,0,0,-1,84,535)"
       y2="188.3907"
       x2="655.6225"
       y1="412.5"
       x1="655.6225"
       gradientUnits="userSpaceOnUse"
       id="SVGID_4_">
      <stop
         id="stop816"
         style="stop-color:#3D3D3D"
         offset="0.6404" />
      <stop
         id="stop818"
         style="stop-color:#000000"
         offset="0.6441" />
    </linearGradient>
    <linearGradient
       inkscape:collect="always"
       xlink:href="#SVGID_5_"
       id="linearGradient5621"
       gradientUnits="userSpaceOnUse"
       gradientTransform="matrix(1,0,0,-1,84,535)"
       x1="755.00928"
       y1="412.5"
       x2="755.00952"
       y2="188.3907" />
    <linearGradient
       gradientTransform="matrix(1,0,0,-1,84,535)"
       y2="188.3907"
       x2="755.00952"
       y1="412.5"
       x1="755.00928"
       gradientUnits="userSpaceOnUse"
       id="SVGID_5_">
      <stop
         id="stop823"
         style="stop-color:#3D3D3D"
         offset="0.6404" />
      <stop
         id="stop825"
         style="stop-color:#000000"
         offset="0.6441" />
    </linearGradient>
    <clipPath
       id="SVGID_7_">
      <use
         id="use849"
         overflow="visible"
         xlink:href="#SVGID_6_"
         style="overflow:visible"
         x="0"
         y="0"
         width="960"
         height="560" />
    </clipPath>
    <linearGradient
       inkscape:collect="always"
       xlink:href="#SVGID_8_"
       id="linearGradient5623"
       gradientUnits="userSpaceOnUse"
       gradientTransform="matrix(1,0,0,-1,84,535)"
       x1="119.722"
       y1="393.5"
       x2="119.722"
       y2="188.34399" />
    <linearGradient
       gradientTransform="matrix(1,0,0,-1,84,535)"
       y2="188.34399"
       x2="119.722"
       y1="393.5"
       x1="119.722"
       gradientUnits="userSpaceOnUse"
       id="SVGID_8_">
      <stop
         id="stop854"
         style="stop-color:#C00000"
         offset="0.5809" />
      <stop
         id="stop856"
         style="stop-color:#740000"
         offset="0.5819" />
    </linearGradient>
    <filter
       height="1.8116976"
       y="-0.40584883"
       width="1.1408184"
       x="-0.070409171"
       id="filter4902-5"
       inkscape:collect="always"
       style="color-interpolation-filters:sRGB">
      <feGaussianBlur
         id="feGaussianBlur4904-8"
         stdDeviation="6.0301965"
         inkscape:collect="always" />
    </filter>
    <filter
       height="1.1641935"
       y="-0.082096778"
       width="1.4458394"
       x="-0.22291972"
       id="filter4465-5"
       inkscape:collect="always"
       style="color-interpolation-filters:sRGB">
      <feGaussianBlur
         id="feGaussianBlur4467-0"
         stdDeviation="9.0051285"
         inkscape:collect="always" />
    </filter>
    <filter
       id="filter4672-2"
       inkscape:collect="always"
       style="color-interpolation-filters:sRGB">
      <feGaussianBlur
         id="feGaussianBlur4674-2"
         stdDeviation="0.90051285"
         inkscape:collect="always" />
    </filter>
    <linearGradient
       inkscape:collect="always"
       xlink:href="#linearGradient4139-3"
       id="linearGradient5625"
       gradientUnits="userSpaceOnUse"
       gradientTransform="translate(-574.18492,-388.90641)"
       x1="254.05432"
       y1="482.6861"
       x2="200.9789"
       y2="409.79587" />
    <linearGradient
       id="linearGradient4139-3">
      <stop
         id="stop4141-9"
         offset="0"
         style="stop-color:#c60a0a;stop-opacity:1;" />
      <stop
         id="stop4143-9"
         offset="1"
         style="stop-color:#850707;stop-opacity:0;" />
    </linearGradient>
    <filter
       id="filter4676-6"
       inkscape:collect="always"
       style="color-interpolation-filters:sRGB">
      <feGaussianBlur
         id="feGaussianBlur4678-8"
         stdDeviation="0.59760643"
         inkscape:collect="always" />
    </filter>
    <filter
       id="filter4970-2"
       inkscape:collect="always"
       style="color-interpolation-filters:sRGB">
      <feGaussianBlur
         id="feGaussianBlur4972-3"
         stdDeviation="0.20200843"
         inkscape:collect="always" />
    </filter>
    <filter
       id="filter4962-5"
       inkscape:collect="always"
       style="color-interpolation-filters:sRGB">
      <feGaussianBlur
         id="feGaussianBlur4964-8"
         stdDeviation="0.21101913"
         inkscape:collect="always" />
    </filter>
    <filter
       id="filter4978-1"
       inkscape:collect="always"
       style="color-interpolation-filters:sRGB">
      <feGaussianBlur
         id="feGaussianBlur4980-3"
         stdDeviation="0.31588894"
         inkscape:collect="always" />
    </filter>
    <filter
       id="filter4990-2"
       inkscape:collect="always"
       style="color-interpolation-filters:sRGB">
      <feGaussianBlur
         id="feGaussianBlur4992-7"
         stdDeviation="0.24108367"
         inkscape:collect="always" />
    </filter>
    <radialGradient
       inkscape:collect="always"
       xlink:href="#linearGradient4045-4"
       id="radialGradient5627"
       gradientUnits="userSpaceOnUse"
       gradientTransform="matrix(1.1257297,0,0,0.91316704,61.820386,35.435958)"
       cx="-299.81207"
       cy="454.15884"
       fx="-299.81207"
       fy="454.15884"
       r="15.914475" />
    <linearGradient
       id="linearGradient4045-4">
      <stop
         id="stop4047-7"
         offset="0"
         style="stop-color:#000000;stop-opacity:1;" />
      <stop
         style="stop-color:#464646;stop-opacity:1;"
         offset="0.23789497"
         id="stop4059-0" />
      <stop
         style="stop-color:#ffffff;stop-opacity:1;"
         offset="0.27460751"
         id="stop4053-4" />
      <stop
         id="stop4055-7"
         offset="0.74062073"
         style="stop-color:#ffffff;stop-opacity:1;" />
      <stop
         id="stop4049-1"
         offset="1"
         style="stop-color:#000000;stop-opacity:1;" />
    </linearGradient>
    <radialGradient
       inkscape:collect="always"
       xlink:href="#linearGradient4045-4"
       id="radialGradient5629"
       gradientUnits="userSpaceOnUse"
       gradientTransform="matrix(1.1814524,0,0,0.91316704,54.40163,39.435958)"
       cx="-299.81207"
       cy="454.15884"
       fx="-299.81207"
       fy="454.15884"
       r="15.914475" />
    <linearGradient
       id="linearGradient5718">
      <stop
         id="stop5720"
         offset="0"
         style="stop-color:#000000;stop-opacity:1;" />
      <stop
         style="stop-color:#464646;stop-opacity:1;"
         offset="0.23789497"
         id="stop5722" />
      <stop
         style="stop-color:#ffffff;stop-opacity:1;"
         offset="0.27460751"
         id="stop5724" />
      <stop
         id="stop5726"
         offset="0.74062073"
         style="stop-color:#ffffff;stop-opacity:1;" />
      <stop
         id="stop5728"
         offset="1"
         style="stop-color:#000000;stop-opacity:1;" />
    </linearGradient>
    <filter
       id="filter5062-5"
       inkscape:collect="always"
       style="color-interpolation-filters:sRGB">
      <feGaussianBlur
         id="feGaussianBlur5064-1"
         stdDeviation="0.048264443"
         inkscape:collect="always" />
    </filter>
    <linearGradient
       inkscape:collect="always"
       xlink:href="#linearGradient4664-1"
       id="linearGradient5631"
       gradientUnits="userSpaceOnUse"
       x1="121.86762"
       y1="546.02277"
       x2="185.54404"
       y2="546.02277" />
    <linearGradient
       id="linearGradient4664-1"
       inkscape:collect="always">
      <stop
         id="stop4666-2"
         offset="0"
         style="stop-color:#d00006;stop-opacity:1;" />
      <stop
         id="stop4668-7"
         offset="1"
         style="stop-color:#d00006;stop-opacity:0;" />
    </linearGradient>
    <filter
       id="filter4537-2"
       inkscape:collect="always"
       style="color-interpolation-filters:sRGB">
      <feGaussianBlur
         id="feGaussianBlur4539-7"
         stdDeviation="0.67829776"
         inkscape:collect="always" />
    </filter>
    <radialGradient
       inkscape:collect="always"
       xlink:href="#linearGradient4644-5"
       id="radialGradient5633"
       gradientUnits="userSpaceOnUse"
       gradientTransform="matrix(2.1672929,-0.06597205,0.06707437,2.2035057,-132.61934,-651.85095)"
       cx="98.721039"
       cy="552.52179"
       fx="98.721039"
       fy="552.52179"
       r="32.572868" />
    <linearGradient
       id="linearGradient4644-5">
      <stop
         id="stop4646-9"
         offset="0"
         style="stop-color:#ff0000;stop-opacity:1;" />
      <stop
         id="stop4648-9"
         offset="1"
         style="stop-color:#cf0000;stop-opacity:0.46043167;" />
    </linearGradient>
    <filter
       height="1.1049833"
       y="-0.052491661"
       width="1.2291703"
       x="-0.11458517"
       id="filter4798-0"
       inkscape:collect="always"
       style="color-interpolation-filters:sRGB">
      <feGaussianBlur
         id="feGaussianBlur4800-1"
         stdDeviation="3.0776548"
         inkscape:collect="always" />
    </filter>
    <filter
       id="filter4914-2"
       inkscape:collect="always"
       style="color-interpolation-filters:sRGB">
      <feGaussianBlur
         id="feGaussianBlur4916-1"
         stdDeviation="0.61615515"
         inkscape:collect="always" />
    </filter>
  </defs>
  <sodipodi:namedview
     id="base"
     pagecolor="#ffffff"
     bordercolor="#666666"
     borderopacity="1.0"
     inkscape:pageopacity="0.0"
     inkscape:pageshadow="2"
     inkscape:zoom="0.5"
     inkscape:cx="694.81409"
     inkscape:cy="469.42972"
     inkscape:document-units="px"
     inkscape:current-layer="layer2"
     showgrid="false"
     inkscape:window-width="1920"
     inkscape:window-height="1016"
     inkscape:window-x="0"
     inkscape:window-y="27"
     inkscape:window-maximized="1"
     fit-margin-top="0"
     fit-margin-left="0"
     fit-margin-right="0"
     fit-margin-bottom="0"
     showguides="false"
     inkscape:guide-bbox="true"
     inkscape:snap-page="true"
     units="mm">
    <sodipodi:guide
       orientation="1,0"
       position="60.23622,2.8952847e-05"
       id="guide3918"
       inkscape:locked="false" />
    <sodipodi:guide
       orientation="1,0"
       position="683.85827,2.8952847e-05"
       id="guide3951"
       inkscape:locked="false" />
    <sodipodi:guide
       orientation="1,0"
       position="198.15832,904.72285"
       id="guide3953"
       inkscape:locked="false" />
    <sodipodi:guide
       orientation="1,0"
       position="469.18665,823.02276"
       id="guide3955"
       inkscape:locked="false" />
    <sodipodi:guide
       orientation="0,1"
       position="202.69531,1006.8048"
       id="guide4344"
       inkscape:locked="false" />
    <sodipodi:guide
       orientation="0,1"
       position="409.01562,851.17972"
       id="guide9888"
       inkscape:locked="false" />
  </sodipodi:namedview>
  <metadata
     id="metadata7">
    <rdf:RDF>
      <cc:Work
         rdf:about="">
        <dc:format>image/svg+xml</dc:format>
        <dc:type
           rdf:resource="http://purl.org/dc/dcmitype/StillImage" />
        <dc:title></dc:title>
      </cc:Work>
    </rdf:RDF>
  </metadata>
  <g
     inkscape:groupmode="layer"
     id="layer2"
     inkscape:label="page"
     style="display:inline"
     transform="translate(-112.20039,364.62202)">
    <text
       xml:space="preserve"
       style="font-style:normal;font-weight:normal;line-height:0%;font-family:sans-serif;letter-spacing:0px;word-spacing:0px;display:inline;fill:#3d3d3d;fill-opacity:1;stroke:none"
       x="796.05865"
       y="703.2572"
       id="text4609"><tspan
         sodipodi:role="line"
         x="796.05865"
         y="703.2572"
         id="tspan4619"
         style="font-style:normal;font-variant:normal;font-weight:normal;font-stretch:normal;font-size:12px;line-height:1.25;font-family:Quadranta;-inkscape-font-specification:Quadranta;text-align:end;text-anchor:end;fill:#3d3d3d;fill-opacity:1">Bacula® is a registered trademark of Kern Sibbald</tspan><tspan
         sodipodi:role="line"
         x="799.87897"
         y="718.2572"
         id="tspan4621"
         style="font-style:normal;font-variant:normal;font-weight:normal;font-stretch:normal;font-size:12px;line-height:1.25;font-family:Quadranta;-inkscape-font-specification:Quadranta;text-align:end;text-anchor:end;fill:#3d3d3d;fill-opacity:1"> </tspan></text>
    <text
       xml:space="preserve"
       style="font-style:normal;font-weight:normal;line-height:0%;font-family:sans-serif;letter-spacing:0px;word-spacing:0px;fill:#000000;fill-opacity:1;stroke:none"
       x="310.3587"
       y="-108.74279"
       id="text3957"><tspan
         sodipodi:role="line"
         id="tspan3959"
         x="310.3587"
         y="-108.74279"
         style="font-style:normal;font-variant:normal;font-weight:normal;font-stretch:normal;font-size:36px;line-height:1.25;font-family:'DejaVu Sans';-inkscape-font-specification:'DejaVu Sans';text-align:start;letter-spacing:1.09000003px;text-anchor:start;fill:#000000;fill-opacity:1;stroke:none">The Leading Open Source</tspan><tspan
         sodipodi:role="line"
         x="310.3587"
         y="-63.742794"
         id="tspan3971"
         style="font-style:normal;font-variant:normal;font-weight:normal;font-stretch:normal;font-size:36px;line-height:1.25;font-family:'DejaVu Sans';-inkscape-font-specification:'DejaVu Sans';text-align:start;letter-spacing:1.09000003px;text-anchor:start;fill:#000000;fill-opacity:1;stroke:none">Backup Solution</tspan><tspan
         sodipodi:role="line"
         x="310.3587"
         y="-18.742794"
         id="tspan3973"
         style="font-weight:normal;font-size:36px;line-height:1.25;font-family:sans-serif;-inkscape-font-specification:'DejaVu Sans';text-align:start;letter-spacing:1.09000003px;text-anchor:start;fill:#000000;fill-opacity:1;stroke:none"> </tspan></text>
    <text
       id="text4671"
       y="703.2572"
       x="796.05865"
       style="font-style:normal;font-weight:normal;line-height:0%;font-family:sans-serif;letter-spacing:0px;word-spacing:0px;display:inline;fill:#3d3d3d;fill-opacity:1;stroke:none;filter:url(#filter4883)"
       xml:space="preserve"><tspan
         style="font-style:normal;font-variant:normal;font-weight:normal;font-stretch:normal;font-size:12px;line-height:1.25;font-family:Quadranta;-inkscape-font-specification:Quadranta;text-align:end;text-anchor:end;fill:#3d3d3d;fill-opacity:1"
         id="tspan4673"
         y="703.2572"
         x="796.05865"
         sodipodi:role="line">Bacula® is a registered trademark of Kern Sibbald</tspan><tspan
         style="font-style:normal;font-variant:normal;font-weight:normal;font-stretch:normal;font-size:12px;line-height:1.25;font-family:Quadranta;-inkscape-font-specification:Quadranta;text-align:end;text-anchor:end;fill:#3d3d3d;fill-opacity:1"
         id="tspan4675"
         y="718.2572"
         x="799.87897"
         sodipodi:role="line"> </tspan></text>
    <rect
       style="fill:url(#linearGradient4084);fill-opacity:1;stroke:none"
       id="rect3920"
       width="61.641666"
       height="1122.5197"
       x="-173.84206"
       y="-364.62201"
       transform="scale(-1,1)" />
    <path
       style="fill:#410001;fill-opacity:1;stroke:#dc0000;stroke-width:1;stroke-linecap:butt;stroke-linejoin:miter;stroke-miterlimit:4;stroke-dasharray:3, 3;stroke-dashoffset:0;stroke-opacity:1"
       d="M 188.15413,-163.42111 H 509.38704"
       id="path3949"
       inkscape:connector-curvature="0"
       sodipodi:nodetypes="cc" />
    <g
       id="g5555"
       transform="matrix(0.5144832,0,0,0.5144832,113.59989,-364.24082)">
      <g
         id="g792">
        <linearGradient
           gradientTransform="matrix(1,0,0,-1,84,535)"
           y2="188.3907"
           x2="288.78949"
           y1="412.5"
           x1="288.78949"
           gradientUnits="userSpaceOnUse"
           id="linearGradient5748">
          <stop
             id="stop5750"
             style="stop-color:#3D3D3D"
             offset="0.6404" />
          <stop
             id="stop5752"
             style="stop-color:#000000"
             offset="0.6441" />
        </linearGradient>
        <path
           id="path799"
           d="m 434.384,274.713 c 0,3.173 -0.289,6.635 -0.577,9.521 0.577,16.155 8.943,31.157 22.214,40.39 v 22.214 c -15.002,-6.635 -26.542,-17.887 -33.754,-31.734 -12.982,19.329 -35.197,31.734 -60.584,31.734 -40.39,0 -72.125,-32.023 -72.125,-72.124 0,-40.678 31.158,-72.702 72.125,-72.702 38.946,-0.001 72.701,31.734 72.701,72.701 z m -19.33,-0.289 c 0,-29.138 -23.945,-53.083 -53.083,-53.083 -29.427,0 -53.084,23.945 -53.084,53.083 0,29.426 23.657,53.083 53.084,53.083 29.138,10e-4 53.083,-23.656 53.083,-53.083 z"
           inkscape:connector-curvature="0"
           style="fill:url(#linearGradient5613)" />
        <linearGradient
           gradientTransform="matrix(1,0,0,-1,84,535)"
           y2="188.3907"
           x2="414.23499"
           y1="412.5"
           x1="414.23499"
           gradientUnits="userSpaceOnUse"
           id="linearGradient5755">
          <stop
             id="stop5757"
             style="stop-color:#3D3D3D"
             offset="0.6404" />
          <stop
             id="stop5759"
             style="stop-color:#000000"
             offset="0.6441" />
        </linearGradient>
        <path
           id="path806"
           d="m 546.612,236.054 -0.288,-0.289 c -20.772,-20.772 -54.238,-20.772 -75.01,0 -20.772,20.483 -20.772,54.237 0,75.01 20.483,20.771 54.526,20.771 75.01,0 l 13.559,13.559 v 0.289 c -28.561,28.272 -73.566,28.562 -102.128,0 -28.561,-28.85 -28.561,-73.855 -0.289,-102.417 28.85,-28.85 75.298,-27.407 102.706,0 z"
           inkscape:connector-curvature="0"
           style="fill:url(#linearGradient5615)" />
        <linearGradient
           gradientTransform="matrix(1,0,0,-1,84,535)"
           y2="188.3907"
           x2="542.24011"
           y1="412.5"
           x1="542.23993"
           gradientUnits="userSpaceOnUse"
           id="linearGradient5762">
          <stop
             id="stop5764"
             style="stop-color:#3D3D3D"
             offset="0.6404" />
          <stop
             id="stop5766"
             style="stop-color:#000000"
             offset="0.6441" />
        </linearGradient>
        <path
           id="path813"
           d="m 698.653,345.972 h -19.33 v -20.483 c -12.982,13.848 -31.734,22.503 -52.795,22.503 -38.947,0 -72.701,-31.734 -72.701,-72.702 v -72.413 h 19.329 v 72.413 c 0,29.427 23.945,53.373 53.084,53.373 29.427,0 53.083,-23.945 53.083,-53.373 v -72.413 h 19.33 z"
           inkscape:connector-curvature="0"
           style="fill:url(#linearGradient5617)" />
        <linearGradient
           gradientTransform="matrix(1,0,0,-1,84,535)"
           y2="188.3907"
           x2="655.6225"
           y1="412.5"
           x1="655.6225"
           gradientUnits="userSpaceOnUse"
           id="linearGradient5769">
          <stop
             id="stop5771"
             style="stop-color:#3D3D3D"
             offset="0.6404" />
          <stop
             id="stop5773"
             style="stop-color:#000000"
             offset="0.6441" />
        </linearGradient>
        <path
           id="path820"
           d="m 703.56,129.887 h 19.329 v 144.538 c 0,28.85 23.369,52.506 52.796,52.506 v 19.329 c -40.39,0 -72.125,-32.022 -72.125,-71.835 z"
           inkscape:connector-curvature="0"
           style="fill:url(#linearGradient5619)" />
        <linearGradient
           gradientTransform="matrix(1,0,0,-1,84,535)"
           y2="188.3907"
           x2="755.00952"
           y1="412.5"
           x1="755.00928"
           gradientUnits="userSpaceOnUse"
           id="linearGradient5776">
          <stop
             id="stop5778"
             style="stop-color:#3D3D3D"
             offset="0.6404" />
          <stop
             id="stop5780"
             style="stop-color:#000000"
             offset="0.6441" />
        </linearGradient>
        <path
           id="path827"
           d="m 900.604,274.713 c 0,3.173 -0.289,6.635 -0.577,9.521 0.577,16.155 8.943,31.157 22.214,40.39 v 22.214 c -15.002,-6.635 -26.541,-17.887 -33.754,-31.734 -12.982,19.329 -35.196,31.734 -60.585,31.734 -40.39,0 -72.124,-32.023 -72.124,-72.124 0,-40.678 31.158,-72.702 72.124,-72.702 38.948,-0.001 72.702,31.734 72.702,72.701 z m -19.33,-0.289 c 0,-29.138 -23.945,-53.083 -53.083,-53.083 -29.427,0 -53.084,23.945 -53.084,53.083 0,29.426 23.657,53.083 53.084,53.083 29.138,10e-4 53.083,-23.656 53.083,-53.083 z"
           inkscape:connector-curvature="0"
           style="fill:url(#linearGradient5621)" />
      </g>
      <g
         id="g829">
        <path
           id="path831"
           d="m 799.198,394.832 c -2.391,0 -4.542,-1.993 -4.542,-4.543 0,-2.551 2.151,-4.622 4.542,-4.622 2.551,0 4.623,2.071 4.623,4.622 0,2.55 -2.072,4.543 -4.623,4.543 z"
           inkscape:connector-curvature="0"
           style="fill:#dc0000" />
        <path
           id="path833"
           d="m 850.683,374.668 c 0,11.078 -8.847,19.925 -20.084,19.925 -11.157,0 -19.924,-8.847 -19.924,-19.925 0,-11.236 8.607,-20.083 19.924,-20.083 10.758,0 20.084,8.767 20.084,20.083 z m -5.34,-0.079 c 0,-8.129 -6.535,-14.664 -14.664,-14.664 -8.05,0 -14.664,6.535 -14.664,14.664 0,8.049 6.614,14.664 14.664,14.664 8.129,0 14.664,-6.615 14.664,-14.664 z"
           inkscape:connector-curvature="0"
           style="fill:#dc0000" />
        <path
           id="path835"
           d="m 857.061,354.903 h 5.34 v 6.217 c 3.586,-3.905 8.767,-6.296 14.584,-6.296 v 5.34 c -7.97,0 -14.266,6.216 -14.584,13.946 v 20.243 h -5.34 z"
           inkscape:connector-curvature="0"
           style="fill:#dc0000" />
        <path
           id="path837"
           d="m 913.327,388.217 c -3.666,3.905 -8.847,6.296 -14.744,6.296 -11.157,0 -19.924,-8.846 -19.924,-19.924 0,-11.237 8.607,-20.084 19.924,-20.084 10.68,0 20.004,8.767 20.084,20.004 v 19.128 c 0,11.077 -8.767,19.924 -19.925,19.924 v -5.34 c 8.13,0 14.585,-6.455 14.585,-14.584 z m 0,-13.071 v -0.638 c 0,-8.049 -6.615,-14.664 -14.664,-14.664 -8.129,0 -14.664,6.615 -14.664,14.664 0,8.129 6.535,14.664 14.664,14.664 7.811,10e-4 14.345,-6.215 14.664,-14.026 z"
           inkscape:connector-curvature="0"
           style="fill:#dc0000" />
      </g>
      <g
         id="g839">
        <g
           id="g841">
          <g
             id="g843">
            <defs
               id="defs845">
              <path
                 d="m 228.534,136 c -0.782,10 -6.131,24 -30.211,24 -37.206,0 -53.802,0 -53.802,0 l 1.2,-24 H 75 V 340 H 321 V 136 Z"
                 id="SVGID_6_"
                 inkscape:connector-curvature="0" />
            </defs>
            <clipPath
               id="clipPath5793">
              <use
                 id="use5795"
                 overflow="visible"
                 xlink:href="#SVGID_6_"
                 style="overflow:visible"
                 x="0"
                 y="0"
                 width="960"
                 height="560" />
            </clipPath>
            <g
               id="g851"
               clip-path="url(#SVGID_7_)">
              <linearGradient
                 gradientTransform="matrix(1,0,0,-1,84,535)"
                 y2="188.34399"
                 x2="119.722"
                 y1="393.5"
                 x1="119.722"
                 gradientUnits="userSpaceOnUse"
                 id="linearGradient5798">
                <stop
                   id="stop5800"
                   style="stop-color:#C00000"
                   offset="0.5809" />
                <stop
                   id="stop5802"
                   style="stop-color:#740000"
                   offset="0.5819" />
              </linearGradient>
              <path
                 id="path858"
                 d="m 229.009,340.29 h -57.228 c -11.445,19.963 -33.538,34.869 -58.558,34.869 v -17.834 c 27.15,0 48.71,-21.561 48.71,-48.71 V 139.595 H 233.8 c 22.891,0.532 41.257,19.431 41.257,42.588 0,13.042 -6.122,25.021 -15.705,32.739 20.496,11.445 34.869,33.006 34.869,58.825 10e-4,36.465 -28.48,65.744 -65.212,66.543 z M 179.767,157.428 v 49.242 h 52.969 c 13.575,0 24.488,-10.913 24.488,-24.488 0,-13.575 -10.914,-24.754 -24.488,-24.754 z m 96.621,116.052 c 0,-27.15 -21.826,-48.976 -48.976,-48.976 h -47.646 v 97.952 h 47.646 c 27.15,0 48.976,-21.826 48.976,-48.976 z"
                 inkscape:connector-curvature="0"
                 style="fill:url(#linearGradient5623)" />
            </g>
          </g>
        </g>
      </g>
      <g
         transform="matrix(0.87021614,0,0,0.87021614,439.11507,75.204808)"
         id="g4725">
        <path
           sodipodi:nodetypes="cccccccccccccc"
           inkscape:connector-curvature="0"
           id="path3197-3"
           d="m -292.09982,88.1739 c -4.58645,4.91835 -33.06235,6.90551 -45.96194,4.04061 -56.27227,63.07881 43.79031,123.00812 -39.90103,276.27672 -11.36422,-22.47589 -30.05203,-28.53681 -42.4264,-29.04189 14.64721,-35.1028 -15.90991,-79.04443 -26.26397,-80.55966 -2.48947,-100.30982 -19.61638,-180.65317 36.36549,-213.64727 6.55983,-19.62478 24.40206,-26.2652 42.80521,-29.61009 8.46003,-1.6415 25.66702,1.16684 27.90547,2.33598 77.11376,-24.75455 196.18,-31.70301 300.40483,-9.59787 3.53836,1.14997 10.97328,-0.1384 12.74246,1.01157 -97.63121,28.69406 -135.20064,-4.34212 -190.41376,18.43528 -13.00348,-8.22669 -32.44927,-14.26322 -66.41753,10.85914 25.11424,-0.27152 48.5451,37.26402 7.10381,50.76017 -13.2196,2.48905 -15.94264,-1.26269 -15.94264,-1.26269 z"
           style="fill:#d10a0a;fill-opacity:1;stroke:#d10a0a;stroke-width:1px;stroke-linecap:butt;stroke-linejoin:miter;stroke-opacity:1" />
        <path
           sodipodi:nodetypes="ccccccccccc"
           inkscape:connector-curvature="0"
           id="path4802-0"
           d="m -297.81138,31.98159 c 0.79613,-3.71527 31.21428,-25.07809 33.16038,-26.05114 35.38361,-4.15757 100.29415,4.6094 112.58995,11.5092 1.06151,-6.28059 -27.93609,-17.06909 -38.37426,-18.74981 6.28059,0.79613 13.60187,0.5004 15.10567,0.23502 4.42295,1.32689 23.42252,11.2915 28.02239,18.01439 14.59574,-2.47685 55.04397,-16.26299 55.04397,-16.26299 0,0 -46.71626,14.35461 -55.03141,18.86602 -61.74439,-18.48793 -113.05739,-9.82848 -113.85352,-9.5631 -1.5038,-0.26538 -13.39368,3.40564 -31.35087,24.37042 z"
           style="fill:#000808;fill-opacity:1;stroke:none;filter:url(#filter4902-5)" />
        <path
           style="fill:#000000;fill-opacity:1;stroke:none;filter:url(#filter4465-5)"
           d="m -351.55936,71.13417 c -6.19213,10.61508 -24.01058,22.6548 -38.03738,31.66833 7.57774,18.38471 27.42229,29.19147 33.79134,70.94413 -19.28407,17.86872 -76.42859,52.72158 -84.56682,78.3747 17.86872,-28.12997 62.09823,-55.72918 82.08997,-72.00564 -9.73049,34.3221 -34.49902,93.05889 -58.02912,154.27253 11.67659,-17.51489 43.16801,-95.71267 61.92132,-154.98021 -1.59226,4.24603 -1.76919,108.09692 0.35383,112.87371 0,0 1.9461,-111.10453 3.18453,-112.51987 1.9461,3.36144 1.06151,103.67397 1.06151,103.67397 0,0 4.42295,-97.83568 3.53836,-101.90479 -13.26885,-45.64485 -29.89915,-64.75201 -34.3221,-77.13627 16.6303,-9.55357 31.49141,-29.89915 37.15279,-27.95305 -5.13062,-2.29993 -8.13823,-5.30754 -8.13823,-5.30754 z"
           id="path4435-0"
           inkscape:connector-curvature="0"
           sodipodi:nodetypes="cccccccccccccc" />
        <path
           sodipodi:nodetypes="cccccccccccccc"
           inkscape:connector-curvature="0"
           id="path4016-5"
           d="m -351.55936,71.13417 c -6.19213,10.61508 -24.01058,22.6548 -38.03738,31.66833 7.57774,18.38471 27.42229,29.19147 33.79134,70.94413 -19.28407,17.86872 -76.42859,52.72158 -84.56682,78.3747 17.86872,-28.12997 62.09823,-55.72918 82.08997,-72.00564 -9.73049,34.3221 -34.49902,93.05889 -58.02912,154.27253 11.67659,-17.51489 43.16801,-95.71267 61.92132,-154.98021 -1.59226,4.24603 -1.76919,108.09692 0.35383,112.87371 0,0 1.9461,-111.10453 3.18453,-112.51987 1.9461,3.36144 1.06151,103.67397 1.06151,103.67397 0,0 4.42295,-97.83568 3.53836,-101.90479 -13.26885,-45.64485 -29.89915,-64.75201 -34.3221,-77.13627 16.6303,-9.55357 31.49141,-29.89915 37.15279,-27.95305 -5.13062,-2.29993 -8.13823,-5.30754 -8.13823,-5.30754 z"
           style="fill:#b10808;fill-opacity:1;stroke:none;filter:url(#filter4672-2)" />
        <path
           sodipodi:nodetypes="csssccc"
           inkscape:connector-curvature="0"
           id="path4119-3"
           d="m -409.76694,43.21024 c 2.24081,-6.88781 10.36329,-25.16924 43.32382,-28.7086 30.18122,-3.24091 59.46222,19.07698 73.87165,20.20022 29.65437,2.31161 59.60462,29.86796 27.48078,52.66498 -13.0406,9.25439 -22.79405,2.08629 -28.80242,2.81843 -13.88575,4.54429 -35.39469,6.20655 -44.31666,2.43945 -3.30594,-28.42652 -35.77859,-16.38809 -71.55717,-49.41448 z"
           style="fill:url(#linearGradient5625);fill-opacity:1;stroke:none;filter:url(#filter4676-6)" />
        <path
           sodipodi:nodetypes="ccccc"
           inkscape:connector-curvature="0"
           id="path4115-7"
           d="m -283.1658,55.21983 c 0,0 9.1323,-24.58214 41.40809,-28.77299 1.43865,6.81795 -27.83474,39.34394 -27.83474,39.34394 8.13149,-22.33034 16.38809,-26.70884 15.19964,-30.96224 0,0 -14.88689,10.38329 -28.77299,20.39129 z"
           style="fill:#a00a0a;fill-opacity:1;stroke:none;filter:url(#filter4970-2)" />
        <path
           sodipodi:nodetypes="csscscc"
           inkscape:connector-curvature="0"
           id="path4111-4"
           d="m -299.18065,53.34946 c 0,0 -11.16482,-17.34958 -17.01449,-13.59938 -3.87878,2.48667 -1.23127,16.30854 2.56271,23.18331 1.38102,2.50243 5.2243,5.463 6.4753,6.27615 -30.27419,-12.07215 -24.12151,-40.15648 -22.94125,-40.35878 19.61351,-3.36186 33.36942,14.50588 42.32764,23.13204 -0.21196,5.8862 -11.40991,1.36666 -11.40991,1.36666 z"
           style="fill:#a00a0a;fill-opacity:1;stroke:none;filter:url(#filter4962-5)" />
        <path
           style="fill:#c60a0a;fill-opacity:1;stroke:none;filter:url(#filter4978-1)"
           d="m -283.1658,55.21983 13.57335,10.57095 c 13.51079,-24.45704 17.76419,-28.58534 16.57574,-32.83874 0,0 -20.01599,10.63349 -30.14909,22.26779 z"
           id="path4117-7"
           inkscape:connector-curvature="0"
           sodipodi:nodetypes="cccc" />
        <path
           style="fill:#c60a0a;fill-opacity:1;stroke:none;filter:url(#filter4990-2)"
           d="m -299.18065,53.34946 c 0,0 -11.16482,-17.34958 -17.01449,-13.59938 -3.87878,2.48667 -1.23127,16.30854 2.56271,23.18331 1.38102,2.50243 5.04021,6.50537 6.033,5.39156 z"
           id="path4113-1"
           inkscape:connector-curvature="0"
           sodipodi:nodetypes="csscc" />
        <g
           transform="translate(5.81508,-388.90641)"
           id="g4065-8">
          <path
             sodipodi:nodetypes="sssss"
             inkscape:connector-curvature="0"
             id="path4061-6"
             d="m -274.88566,435.66817 c 14.52662,0.88047 14.4015,14.5252 14.35685,17.83748 -0.0982,7.28202 -8.2904,11.03527 -14.67003,11.1831 -6.37963,0.14784 -15.54267,-5.85283 -15.65008,-13.1873 -0.0915,-6.25404 3.05305,-16.61578 15.96326,-15.83328 z"
             style="fill:url(#radialGradient5627);fill-opacity:1;stroke:none" />
          <path
             style="fill:url(#radialGradient5629);fill-opacity:1;stroke:none"
             d="m -298.97109,439.66817 c 15.24567,0.88047 15.11435,14.5252 15.06749,17.83748 -0.10302,7.28202 -8.70077,11.03527 -15.39618,11.1831 -6.69541,0.14784 -16.31202,-5.85283 -16.42474,-13.1873 -0.0961,-6.25404 3.20417,-16.61578 16.75343,-15.83328 z"
             id="path4035-7"
             inkscape:connector-curvature="0"
             sodipodi:nodetypes="sssss" />
        </g>
        <circle
           transform="matrix(2.127139,0,0,1.8235294,-912.73503,-779.88919)"
           id="path4075-8"
           style="fill:#570000;fill-opacity:1;stroke:none;filter:url(#filter5062-5)"
           cx="299.1684"
           cy="471.18643"
           r="3.0076067" />
        <path
           transform="matrix(1.2963724,0,0,1.2963724,-610.17236,-550.7325)"
           style="fill:url(#linearGradient5631);fill-opacity:1;stroke:none;filter:url(#filter4537-2)"
           d="m 134.68281,477.89335 c 0,0 47.0404,54.09764 48.70057,73.75861 1.66017,19.66097 -38.21425,31.62018 -57.70725,62.50018 0,0 -7.49486,-101.45431 9.00668,-136.25879 z"
           id="path4541-7"
           inkscape:connector-curvature="0"
           sodipodi:nodetypes="czcc" />
        <path
           sodipodi:nodetypes="czcc"
           inkscape:connector-curvature="0"
           id="path4614-3"
           d="m 124.49688,476.83231 c 0,0 57.22633,55.15868 58.8865,74.81965 1.66017,19.66097 -39.48749,35.43991 -62.80022,65.89549 -1.27324,-19.73525 -4.31175,-98.059 3.91372,-140.71514 z"
           style="fill:url(#radialGradient5633);fill-opacity:1;stroke:none;filter:url(#filter4798-0)"
           transform="matrix(0.83370498,0,0,0.83370498,-549.56497,-298.10557)" />
        <path
           style="fill:#af0808;fill-opacity:1;stroke:none;filter:url(#filter4914-2)"
           d="m -300.06318,34.98399 c 0.79613,-3.71527 33.46608,-28.08049 35.41218,-29.05354 35.38361,-4.15757 100.29415,4.6094 112.58995,11.5092 1.06151,-6.28059 -27.93609,-17.06909 -38.37426,-18.74981 6.28059,0.79613 13.60187,0.5004 15.10567,0.23502 4.42295,1.32689 23.42252,11.2915 28.02239,18.01439 15.21495,-3.80374 46.72882,-14.05151 55.04397,-16.26299 -4.15757,1.41534 -46.27396,15.50458 -55.03141,18.86602 -61.74439,-18.48793 -113.05739,-9.82848 -113.85352,-9.5631 -1.5038,-0.26538 -15.64548,6.40804 -33.60267,27.37282 z"
           id="path4804-5"
           inkscape:connector-curvature="0"
           sodipodi:nodetypes="ccccccccccc" />
        <path
           d="m -290.20594,84.246439 c 0,0 5.88227,9.533368 18.39358,5.013203 0,0 0.0934,-1.051813 -0.67185,-0.941373 -0.76519,0.11044 -11.51077,2.854357 -16.34254,-5.021091 0,0 -1.09388,-0.310285 -1.37919,0.949261 z"
           id="path4616"
           inkscape:connector-curvature="0"
           style="fill:#090909" />
      </g>
    </g>
    <rect
       style="opacity:0.23999999;fill:#ffffff;fill-opacity:1;fill-rule:evenodd;stroke:none"
       id="rect9112"
       width="485.78235"
       height="17.235725"
       x="310.19028"
       y="-136.09482" />
    <rect
       y="-91.094597"
       x="310.19028"
       height="17.235725"
       width="485.78235"
       id="rect9886"
       style="opacity:0.23999999;fill:#ffffff;fill-opacity:1;fill-rule:evenodd;stroke:none" />
    <rect
       style="display:inline;fill:#740000;fill-opacity:1;fill-rule:evenodd;stroke:#000000;stroke-width:1;stroke-linecap:round;stroke-linejoin:round;stroke-miterlimit:4;stroke-dasharray:none;stroke-dashoffset:0;stroke-opacity:1"
       id="rect9924"
       width="83"
       height="72.820305"
       x="-1635.7996"
       y="-173.01254" />
    <rect
       style="fill:#000000;fill-opacity:1;fill-rule:evenodd;stroke:#000000;stroke-width:1;stroke-linecap:round;stroke-linejoin:round;stroke-miterlimit:4;stroke-dasharray:none;stroke-dashoffset:0;stroke-opacity:1"
       id="rect9952"
       width="101.11627"
       height="100.40916"
       x="-1741.651"
       y="-656.71082" />
    <rect
       style="fill:#3d3d3d;fill-opacity:1;fill-rule:evenodd;stroke:#000000;stroke-width:1;stroke-linecap:round;stroke-linejoin:round;stroke-miterlimit:4;stroke-dasharray:none;stroke-dashoffset:0;stroke-opacity:1"
       id="rect9954"
       width="126.57211"
       height="117.37972"
       x="-1730.3373"
       y="-494.78336" />
    <text
       inkscape:export-ydpi="90"
       inkscape:export-xdpi="90"
       inkscape:export-filename="/home/philippe/BaculaSystems/Perso/books/covers/png/main-coverpage.png"
       id="text3122"
       y="152.50882"
       x="-360.2612"
       style="font-style:normal;font-variant:normal;font-weight:500;font-stretch:expanded;font-size:12.80000019px;line-height:0%;font-family:'Microgramma D';-inkscape-font-specification:'Microgramma D Medium Expanded';text-align:end;letter-spacing:0px;word-spacing:0px;writing-mode:lr-tb;text-anchor:end;display:inline;fill:#390000;fill-opacity:1;stroke:none;stroke-width:1.06666672"
       xml:space="preserve"
       transform="rotate(-90)"><tspan
         y="152.50882"
         x="-352.7012"
         sodipodi:role="line"
         style="font-style:normal;font-variant:normal;font-weight:normal;font-stretch:normal;font-size:24px;line-height:125%;font-family:'DejaVu Sans';-inkscape-font-specification:'DejaVu Sans';text-align:end;letter-spacing:7.5600028px;writing-mode:lr-tb;text-anchor:end;fill:#ffffff;fill-opacity:1;stroke-width:1.06666672"
         id="tspan886">Bacula Community</tspan></text>
    <text
       transform="rotate(-90)"
       xml:space="preserve"
       style="font-style:normal;font-variant:normal;font-weight:500;font-stretch:expanded;font-size:12.80000019px;line-height:0%;font-family:'Microgramma D';-inkscape-font-specification:'Microgramma D Medium Expanded';text-align:end;letter-spacing:0px;word-spacing:0px;writing-mode:lr-tb;text-anchor:end;display:inline;fill:#390000;fill-opacity:1;stroke:none;stroke-width:1.06666672"
       x="-92.261185"
       y="135.98538"
       id="text3074"
       inkscape:export-filename="/home/philippe/BaculaSystems/Perso/books/covers/png/main-coverpage.png"
       inkscape:export-xdpi="90"
       inkscape:export-ydpi="90"><tspan
         style="font-style:normal;font-variant:normal;font-weight:normal;font-stretch:normal;font-size:19.20000076px;line-height:125%;font-family:'DejaVu Sans';-inkscape-font-specification:'DejaVu Sans';text-align:end;writing-mode:lr-tb;text-anchor:end;fill:#ffffff;fill-opacity:1;stroke-width:1.06666672"
         sodipodi:role="line"
         x="-92.261185"
         y="139.31038"
         id="tspan3068" /><tspan
         id="tspan3072"
         style="font-style:normal;font-variant:normal;font-weight:normal;font-stretch:normal;font-size:10.66666698px;line-height:125%;font-family:'DejaVu Sans';-inkscape-font-specification:'DejaVu Sans';text-align:end;writing-mode:lr-tb;text-anchor:end;fill:#ffffff;fill-opacity:1;stroke-width:1.06666672"
         sodipodi:role="line"
         x="-92.261177"
         y="152.97289"><tspan
           id="tspan3092"
           style="font-style:normal;font-variant:normal;font-weight:normal;font-stretch:normal;font-size:19.20000076px;line-height:125%;font-family:'DejaVu Sans';-inkscape-font-specification:'DejaVu Sans';text-align:end;writing-mode:lr-tb;text-anchor:end;fill:#ffffff;fill-opacity:1;stroke-width:1.06666672">version __BVERSION__</tspan></tspan></text>
    <text
       transform="rotate(-90)"
       xml:space="preserve"
       style="font-style:normal;font-variant:normal;font-weight:500;font-stretch:expanded;font-size:12.80000019px;line-height:0%;font-family:'Microgramma D';-inkscape-font-specification:'Microgramma D Medium Expanded';text-align:end;letter-spacing:0px;word-spacing:0px;writing-mode:lr-tb;text-anchor:end;display:inline;fill:#390000;fill-opacity:1;stroke:none;stroke-width:1.06666672"
       x="107.73882"
       y="154.98538"
       id="text3082"
       inkscape:export-filename="/home/philippe/BaculaSystems/Perso/books/covers/png/main-coverpage.png"
       inkscape:export-xdpi="90"
       inkscape:export-ydpi="90"><tspan
         id="tspan3080"
         style="font-style:normal;font-variant:normal;font-weight:normal;font-stretch:normal;font-size:10.66666698px;line-height:125%;font-family:'DejaVu Sans';-inkscape-font-specification:'DejaVu Sans';text-align:end;writing-mode:lr-tb;text-anchor:end;fill:#ffffff;fill-opacity:1;stroke-width:1.06666672"
         sodipodi:role="line"
         x="111.13466"
         y="154.98538">__BDATE__ </tspan></text>
  </g>
  <g
     inkscape:groupmode="layer"
     id="layer1"
     inkscape:label="simulation-texte"
     style="display:none"
     transform="translate(0,70.157517)">
    <text
       transform="translate(-112.20039,294.46457)"
       xml:space="preserve"
       style="font-style:normal;font-weight:normal;line-height:0%;font-family:sans-serif;letter-spacing:0px;word-spacing:0px;display:inline;fill:#000000;fill-opacity:1;stroke:none"
       x="310.3587"
       y="318.21057"
       id="text3088"><tspan
         sodipodi:role="line"
         x="310.3587"
         y="318.21057"
         style="font-style:normal;font-variant:normal;font-weight:bold;font-stretch:semi-condensed;font-size:48px;line-height:125%;font-family:'DejaVu Sans';-inkscape-font-specification:'DejaVu Sans Bold Semi-Condensed';text-align:start;writing-mode:lr-tb;text-anchor:start"
         id="tspan3935">Main reference manual</tspan></text>
    <text
       transform="translate(-112.20039,294.46457)"
       id="text3983"
       y="633.41467"
       x="796.05865"
       style="font-style:normal;font-weight:normal;line-height:0%;font-family:sans-serif;letter-spacing:0px;word-spacing:0px;display:inline;fill:#000000;fill-opacity:1;stroke:none"
       xml:space="preserve"><tspan
         style="font-size:13px;line-height:1.25;font-family:sans-serif;text-align:end;text-anchor:end"
         id="tspan3993"
         y="633.41467"
         x="796.05865"
         sodipodi:role="line">Kern Sibbald</tspan><tspan
         style="font-size:13px;line-height:1.25;font-family:sans-serif;text-align:end;text-anchor:end"
         id="tspan3995"
         y="649.66467"
         x="796.05865"
         sodipodi:role="line">January 11, 2014</tspan><tspan
         style="font-size:13px;line-height:1.25;font-family:sans-serif;text-align:end;text-anchor:end"
         id="tspan3997"
         y="665.91467"
         x="796.05865"
         sodipodi:role="line">This manual documents Bacula version 5.2.13 (08 january 2014)</tspan><tspan
         style="font-size:13px;line-height:1.25;font-family:sans-serif;text-align:end;text-anchor:end"
         id="tspan3999"
         y="682.16467"
         x="800.19733"
         sodipodi:role="line"> </tspan><tspan
         style="font-size:13px;line-height:1.25;font-family:sans-serif;text-align:end;text-anchor:end"
         id="tspan4001"
         y="698.41467"
         x="796.05865"
         sodipodi:role="line">Bacula® is a registered trademark of Kern Sibbald</tspan><tspan
         style="font-size:13px;line-height:1.25;font-family:sans-serif;text-align:end;text-anchor:end"
         id="tspan4003"
         y="714.66467"
         x="800.19733"
         sodipodi:role="line"> </tspan></text>
  </g>
</svg>
